…
df<-data %>%
  select('Call Type','Battalion',Priority,'Unit Type',Neighborhood)
df 

## # A tibble: 78,479 x 5
##    `Call Type`                   Battalion Priority `Unit Type` Neighborhood   
##    <chr>                         <chr>        <dbl> <chr>       <chr>          
##  1 Alarms                        B01              3 CHIEF       North Beach    
##  2 Medical Incident              B08              2 MEDIC       Lakeshore      
##  3 Medical Incident              B02              2 PRIVATE     Tenderloin     
##  4 Medical Incident              B03              3 ENGINE      South of Market
##  5 Alarms                        B03              3 CHIEF       South of Market
##  6 Citizen Assist / Service Call B06              2 TRUCK       Noe Valley     
##  7 Alarms                        B02              3 ENGINE      Tenderloin     
##  8 Medical Incident              B10              3 MEDIC       Bernal Heights 
##  9 Medical Incident              B03              3 MEDIC       Tenderloin     
## 10 Outside Fire                  B04              3 ENGINE      Tenderloin     
## # ... with 78,469 more rows

df%>% rename(Unit_Type = 'Unit Type', Call_Type = 'Call Type')

## # A tibble: 78,479 x 5
##    Call_Type                     Battalion Priority Unit_Type Neighborhood   
##    <chr>                         <chr>        <dbl> <chr>     <chr>          
##  1 Alarms                        B01              3 CHIEF     North Beach    
##  2 Medical Incident              B08              2 MEDIC     Lakeshore      
##  3 Medical Incident              B02              2 PRIVATE   Tenderloin     
##  4 Medical Incident              B03              3 ENGINE    South of Market
##  5 Alarms                        B03              3 CHIEF     South of Market
##  6 Citizen Assist / Service Call B06              2 TRUCK     Noe Valley     
##  7 Alarms                        B02              3 ENGINE    Tenderloin     
##  8 Medical Incident              B10              3 MEDIC     Bernal Heights 
##  9 Medical Incident              B03              3 MEDIC     Tenderloin     
## 10 Outside Fire                  B04              3 ENGINE    Tenderloin     
## # ... with 78,469 more rows
…
